Decription of data
…
protein_family

eg. peroxidase

family_type

subfamily / family

enzyme_class

Eg. transferase

data

# A tibble: 1,137,827 × 17
   entry      pathway cofactor ph_dependence `subcellular_location_[cc]`
   <chr>      <chr>   <chr>            <dbl> <chr>                      
 1 A0A087WPF7 <NA>    <NA>                NA cytoplasm                  
 2 A0A087WPF7 <NA>    <NA>                NA cell projection            
 3 A0A087X1C5 <NA>    heme                NA membrane                   
 4 A0A087X1C5 <NA>    heme                NA membrane                   
 5 A0A087X1C5 <NA>    heme                NA multi-pass membrane protein
 6 A0A087X1C5 <NA>    heme                NA multi-pass membrane protein
 7 A0A087X1C5 <NA>    heme                NA cytoplasm                  
 8 A0A087X1C5 <NA>    heme                NA cytoplasm                  
 9 A0A087X1C5 <NA>    heme                NA mitochondrion              
10 A0A087X1C5 <NA>    heme                NA mitochondrion              
# ℹ 1,137,817 more rows
# ℹ 12 more variables: GO_molecular_function <chr>, organism <chr>,
#   length <dbl>, mass <dbl>, sequence <chr>, active_site <dbl>,
#   binding_site_pos <chr>, binding_site_ligand <chr>, protein_family <chr>,
#   family_type <chr>, enzyme_class <chr>, gene_name <chr>
…
